Money Talks: Investigating the Relationship between Campaign Spending and Vote Share in U.S. House Elections
…
dime_house_1014 <- dime_house_1014 |>
  mutate(disbursement_pct_num = (total.disbursements/total_elec_disb)*100)
# Convert numeric into factor for party variable
dime_house_1014 <- dime_house_1014 |>
  mutate(party = case_when(party == 100 ~ "Democrat",
                           party == 200 ~ "Republican",
                           party == 328 ~ "Independent"))
# Rewrite incumbency status variable to be clearer
dime_house_1014 <- dime_house_1014 |>
  mutate(Incum.Chall = case_when(Incum.Chall == "I" ~ "Incumbent",
                           Incum.Chall == "C" ~ "Challenger",
                           Incum.Chall == "O" ~ "Open Seat"))
dime_house_1014

# A tibble: 2,314 × 12
   elec_id    name    seat  party state distr…¹ Incum…² total…³ winner
   <chr>      <chr>   <chr> <chr> <chr> <chr>   <chr>     <dbl> <chr> 
 1 fd2010VA11 fimian… fede… Repu… VA    VA11    Challe…  2.87e6 L     
 2 fd2010UT01 bowen,… fede… Demo… UT    UT01    Challe…  1.13e4 L     
 3 fd2010TX18 faulk,… fede… Repu… TX    TX18    Challe…  2.63e5 L     
 4 fd2010TX12 smith,… fede… Demo… TX    TX12    Challe…  7.44e3 L     
 5 fd2010TN05 miglie… fede… Inde… TN    TN05    Challe…  2.03e3 L     
 6 fd2010SC04 corden… fede… Demo… SC    SC04    Challe…  1.79e4 L     
 7 fd2010SC03 dyer, … fede… Demo… SC    SC03    Open S…  2.73e5 L     
 8 fd2010SC02 miller… fede… Demo… SC    SC02    Challe…  3.14e6 L     
 9 fd2010RI02 zaccar… fede… Repu… RI    RI02    Challe…  1.86e5 L     
10 fd2010OR03 lopez,… fede… Repu… OR    OR03    Challe…  1.34e5 L     
# … with 2,304 more rows, 3 more variables: gen.elect.pct.num <dbl>,
#   total_elec_disb <dbl>, disbursement_pct_num <dbl>, and
#   abbreviated variable names ¹​district, ²​Incum.Chall,
#   ³​total.disbursements
…
